{
    "data":[{
            "id":1,
            "cat_name" : "اردو",
            "class" : "urdu"
            },
            {
                "id":2,
                "cat_name" : "پشتو",
                "class": "urdu"
            },
            {
                "id":3,
                "cat_name" : "हिंदी",
                "class":"hindi"
            }]
}